[
  {
    "environment": "development",
    "name": "development",
    "type": "postgres",
    "host": "localhost",
    "port": 5432,
    "username": "postgres",
    "password": "admin",
    "database": "qubli",
    "synchronize": false,
    "logging": false,
    "cache": true,
    "entities": [
      "dist/models/*.js"
    ],
    "migrations": [
      "dist/migration/*.js"
    ],
    "subscribers": [
      "dist/subscriber/*.js"
    ],
    "cli": {
      "entitiesDir": "src/models",
      "migrationsDir": "src/migration",
      "subscribersDir": "src/subscriber"
    }
  },
  {
    "environment": "production",
    "name": "production",
    "type": "postgres",
    "host": "localhost",
    "port": 5432,
    "username": "postgres",
    "password": "admin",
    "database": "qubli",
    "synchronize": false,
    "migrationsRun": true,
    "logging": false,
    "entities": [
      "dist/models/*.js"
    ],
    "migrations": [
      "dist/migration/*.js"
    ],
    "subscribers": [
      "dist/subscriber/*.js"
    ],
    "cli": {
      "entitiesDir": "src/models",
      "migrationsDir": "src/migration",
      "subscribersDir": "src/subscriber"
    }
  }
]


